^C:\USERS\USER\SOURCE\REPOS\PROTOTYPE\PROTOTYPE\ARCHER.CPP
/c /ZI /nologo /W3 /WX- /diagnostics:classic /sdl /Od /Oy- /D _MBCS /Gm- /EHsc /RTC1 /MDd /GS /fp:precise /permissive- /Zc:wchar_t /Zc:forScope /Zc:inline /Fo"DEBUG\\" /Fd"DEBUG\VC141.PDB" /Gd /TP /analyze- /FC C:\USERS\USER\SOURCE\REPOS\PROTOTYPE\PROTOTYPE\ARCHER.CPP
^C:\USERS\USER\SOURCE\REPOS\PROTOTYPE\PROTOTYPE\KNIGTH.CPP
/c /ZI /nologo /W3 /WX- /diagnostics:classic /sdl /Od /Oy- /D _MBCS /Gm- /EHsc /RTC1 /MDd /GS /fp:precise /permissive- /Zc:wchar_t /Zc:forScope /Zc:inline /Fo"DEBUG\\" /Fd"DEBUG\VC141.PDB" /Gd /TP /analyze- /FC C:\USERS\USER\SOURCE\REPOS\PROTOTYPE\PROTOTYPE\KNIGTH.CPP
^C:\USERS\USER\SOURCE\REPOS\PROTOTYPE\PROTOTYPE\SWORDSMAN.CPP
/c /ZI /nologo /W3 /WX- /diagnostics:classic /sdl /Od /Oy- /D _MBCS /Gm- /EHsc /RTC1 /MDd /GS /fp:precise /permissive- /Zc:wchar_t /Zc:forScope /Zc:inline /Fo"DEBUG\\" /Fd"DEBUG\VC141.PDB" /Gd /TP /analyze- /FC C:\USERS\USER\SOURCE\REPOS\PROTOTYPE\PROTOTYPE\SWORDSMAN.CPP
^C:\USERS\USER\SOURCE\REPOS\PROTOTYPE\PROTOTYPE\WARRIOR.CPP
/c /ZI /nologo /W3 /WX- /diagnostics:classic /sdl /Od /Oy- /D _MBCS /Gm- /EHsc /RTC1 /MDd /GS /fp:precise /permissive- /Zc:wchar_t /Zc:forScope /Zc:inline /Fo"DEBUG\\" /Fd"DEBUG\VC141.PDB" /Gd /TP /analyze- /FC C:\USERS\USER\SOURCE\REPOS\PROTOTYPE\PROTOTYPE\WARRIOR.CPP
^C:\USERS\USER\SOURCE\REPOS\PROTOTYPE\PROTOTYPE\GAMEOBJECT.CPP
/c /ZI /nologo /W3 /WX- /diagnostics:classic /sdl /Od /Oy- /D _MBCS /Gm- /EHsc /RTC1 /MDd /GS /fp:precise /permissive- /Zc:wchar_t /Zc:forScope /Zc:inline /Fo"DEBUG\\" /Fd"DEBUG\VC141.PDB" /Gd /TP /analyze- /FC C:\USERS\USER\SOURCE\REPOS\PROTOTYPE\PROTOTYPE\GAMEOBJECT.CPP
^C:\USERS\USER\SOURCE\REPOS\PROTOTYPE\PROTOTYPE\TAVERN.CPP
/c /ZI /nologo /W3 /WX- /diagnostics:classic /sdl /Od /Oy- /D _MBCS /Gm- /EHsc /RTC1 /MDd /GS /fp:precise /permissive- /Zc:wchar_t /Zc:forScope /Zc:inline /Fo"DEBUG\\" /Fd"DEBUG\VC141.PDB" /Gd /TP /analyze- /FC C:\USERS\USER\SOURCE\REPOS\PROTOTYPE\PROTOTYPE\TAVERN.CPP
^C:\USERS\USER\SOURCE\REPOS\PROTOTYPE\PROTOTYPE\HERO.CPP
/c /ZI /nologo /W3 /WX- /diagnostics:classic /sdl /Od /Oy- /D _MBCS /Gm- /EHsc /RTC1 /MDd /GS /fp:precise /permissive- /Zc:wchar_t /Zc:forScope /Zc:inline /Fo"DEBUG\\" /Fd"DEBUG\VC141.PDB" /Gd /TP /analyze- /FC C:\USERS\USER\SOURCE\REPOS\PROTOTYPE\PROTOTYPE\HERO.CPP
^C:\USERS\USER\SOURCE\REPOS\PROTOTYPE\PROTOTYPE\MAIN.CPP
/c /ZI /nologo /W3 /WX- /diagnostics:classic /sdl /Od /Oy- /D _MBCS /Gm- /EHsc /RTC1 /MDd /GS /fp:precise /permissive- /Zc:wchar_t /Zc:forScope /Zc:inline /Fo"DEBUG\\" /Fd"DEBUG\VC141.PDB" /Gd /TP /analyze- /FC C:\USERS\USER\SOURCE\REPOS\PROTOTYPE\PROTOTYPE\MAIN.CPP
